…
CSeat.tb$CatSales <- ifelse(CSeat.tb$Sales > thresh, "High", "Low")
CSeat.tb$CatSales <- factor(x = CSeat.tb$CatSales, levels = c("Low", "High"), ordered = TRUE)




CSeat.tb <- CSeat.tb[,c(12, 2:11)]
    
  # Anotherway to reorder
    dplyr::select(CSeat.tb, CatSales, everything())
```

```
## # A tibble: 400 x 11
##    CatSales CompPrice Income Advertising Population Price ShelveLoc   Age
##    <ord>        <dbl>  <dbl>       <dbl>      <dbl> <dbl> <fct>     <dbl>
##  1 High           138     73          11        276   120 Bad          42
##  2 High           111     48          16        260    83 Good         65
##  3 High           113     35          10        269    80 Medium       59
##  4 Low            117    100           4        466    97 Medium       55
##  5 Low            141     64           3        340   128 Bad          38
##  6 High           124    113          13        501    72 Bad          78
##  7 Low            115    105           0         45   108 Medium       71
##  8 High           136     81          15        425   120 Good         67
##  9 Low            132    110           0        108   124 Medium       76
## 10 Low            132    113           0        131   124 Medium       76
## # … with 390 more rows, and 3 more variables: Education <dbl>,
## #   Urban <fct>, US <fct>
```
…
