01_Randomness.utf8
…
}

load.pac()

(1) Compute tables of \(\pi\) digits

First it is necessary to have some digits of pi, well just take a dataset:

pi_Dig <- UsingR::pi2000[-1]
write.csv(pi_Dig, file = "./piDigits.csv", quote = FALSE, row.names = FALSE)
pi_Tibble <- tibble::enframe(piDig)
tibble::remove_rownames(pi_Tibble)

## # A tibble: 1,999 x 2
##     name value
##    <int> <dbl>
##  1     1     1
##  2     2     4
##  3     3     1
##  4     4     5
##  5     5     9
##  6     6     2
##  7     7     6
##  8     8     5
##  9     9     3
## 10    10     5
## #  with 1,989 more rows
…
