…
```r
knitr::opts_chunk$set(fig.path = "./figure/")
```

## Scatterplots

### Crabs

```r
crabsmolt %>%
    as_tibble
```

```
## # A tibble: 472 x 2
##    presz postsz
##    <dbl>  <dbl>
##  1  114.   128.
##  2  118.   133.
##  3  120.   135.
##  4  126.   143.
##  5  127.   139.
##  6  127.   140.
##  7  128.   144.
##  8  130.   145.
##  9  130.   148.
## 10  132.   145.
## #  with 462 more rows
```
…
