…
    ## Loading required package: pacman



``` {.r}
load(file = "./TAD.rdata")
```

Load the Data

``` {.r}
(birthwt <- as_tibble(read.csv(file = "./0datasets/birthwt.csv", header = TRUE, sep = ",")))
```

    ## # A tibble: 1,226 x 2
    ##      bwt smoke
    ##    <int> <fct>
    ##  1  3429 no   
    ##  2  3229 no   
    ##  3  3657 yes  
    ##  4  3514 no   
    ##  5  3086 yes  
    ##  6  3886 no   
    ##  7  3943 no   
    ##  8  3771 no   
    ##  9  3429 no   
    ## 10  4086 yes  
    ## # … with 1,216 more rows
…
