…
```r
term_frequency.Tib$name <- factor(term_frequencyDF$name, levels = term_frequencyDF$name[order(term_frequencyDF)], ordered = TRUE)
print(term_frequency.Tib)
```

```
## # A tibble: 3,075 x 2
##    name     value
##    <ord>    <dbl>
##  1 like       111
##  2 cup        103
##  3 shop        69
##  4 just        66
##  5 get         62
##  6 morning     57
##  7 want        49
##  8 drinking    47
##  9 can         45
## 10 looks       45
## # … with 3,065 more rows
```

```r
## Using dplyr Arrange
term_frequency.Tib <- tibble::enframe(term_frequency)
term_frequency.Tib <- dplyr::arrange(term_frequency.Tib, desc(value))
term_frequency.Tib$name <- factor(term_frequency.Tib$name, ordered = TRUE, levels = term_frequency.Tib$name)
term_frequency.Tib
```

```
## # A tibble: 3,075 x 2
##    name     value
##    <ord>    <dbl>
##  1 like       111
##  2 cup        103
##  3 shop        69
##  4 just        66
##  5 get         62
##  6 morning     57
##  7 want        49
##  8 drinking    47
##  9 can         45
## 10 looks       45
## # … with 3,065 more rows
```
…
