…
### Clean the Data

Copy the data into another data frame to work with:


```r
(iris_tib <- as_tibble(iris_bad))
```

```
## # A tibble: 150 x 6
##    Sample.Index Sepal.Length Sepal.Width Petal.Length Petal.Width Species
##           <int>        <dbl>       <dbl>        <dbl>       <dbl> <fct>  
##  1            1          5.1         3.5          1.4         0.2 setosa 
##  2            2          4.9         3            1.4         0.2 setosa 
##  3            3          4.7         3.2          1.3         0.2 setosa 
##  4            4          4.6         3.1         -1           0.2 setosa 
##  5            5          5          NA            1.4         0.2 setosa 
##  6            6          5.4         3.9          1.7        NA   setosa 
##  7            7          4.6         3.4         NA           0.3 setosa 
##  8            8          5           3.4          1.5         0.2 setosa 
##  9            9          4.4         2.9          1.4         0.2 setosa 
## 10           10          4.9         3.1          1.5         0.1 setosa 
## # … with 140 more rows
```
…
if you don't want to type in all the column names it might be ideal to transform the table into `longer` format 
> (like tidy data but more about making it longer so there's only one relevant column not necessarily conforming to the rules of tidy)


```r
# Make it Longer

pivot_longer(iris_tib, cols = names(iris_df)[2:5]) 
```

```
## # A tibble: 600 x 4
##    Sample.Index Species name         value
##           <int> <fct>   <chr>        <dbl>
##  1            1 setosa  Sepal.Length   5.1
##  2            1 setosa  Sepal.Width    3.5
##  3            1 setosa  Petal.Length   1.4
##  4            1 setosa  Petal.Width    0.2
##  5            2 setosa  Sepal.Length   4.9
##  6            2 setosa  Sepal.Width    3  
##  7            2 setosa  Petal.Length   1.4
##  8            2 setosa  Petal.Width    0.2
##  9            3 setosa  Sepal.Length   4.7
## 10            3 setosa  Sepal.Width    3.2
## # … with 590 more rows
```
…
This however is not very efficient, multiple linear models can be greated and plotted using tidy data and facets in `ggplot2`:



```r
iris_tidy <- pivot_longer(iris_df, cols = names(iris_df)[3:5])
(iris_tidy <- iris_tidy[, -1])
```

```
## # A tibble: 354 x 4
##    Sepal.Length Species name         value
##           <dbl> <fct>   <chr>        <dbl>
##  1          5.1 setosa  Sepal.Width    3.5
##  2          5.1 setosa  Petal.Length   1.4
##  3          5.1 setosa  Petal.Width    0.2
##  4          4.9 setosa  Sepal.Width    3  
##  5          4.9 setosa  Petal.Length   1.4
##  6          4.9 setosa  Petal.Width    0.2
##  7          4.7 setosa  Sepal.Width    3.2
##  8          4.7 setosa  Petal.Length   1.3
##  9          4.7 setosa  Petal.Width    0.2
## 10          4.6 setosa  Sepal.Width    3.1
## # … with 344 more rows
```
…
