…
for (i in 1:7) {
mods[[i]] <- glm(formula = output ~ poly(input, i = i, raw = TRUE), data = mydata)
}


## Predictions
 ### Be super careful of the index here, input variable should be i=1 and lm should be i=2 and x^2 as i=3
preds <- tibble("input" = seq(from = 0, to = max(mydata$input), length.out = 1000))
preds[,1]
```

```
## # A tibble: 1,000 x 1
##      input
##      <dbl>
##  1 0      
##  2 0.00801
##  3 0.0160 
##  4 0.0240 
##  5 0.0320 
##  6 0.0400 
##  7 0.0480 
##  8 0.0561 
##  9 0.0641 
## 10 0.0721 
## # … with 990 more rows
```
…
