08_Practical; SVM
…
Leave the gamma between 1 and 5 and adjust the cost, the summary will return the best performing values as determined by 10-fold cross-validation.

SVM.CV <- e1071::tune(method = svm, EfficientQ ~.-mpg, data = autoTB, kernel = "radial", ranges = list(gamma = seq(from = 1, to = 7, length.out = 10),   cost = seq(from = 0.5, to = 15 , length.out = 10)))

svmCVError <- SVM.CV %>% summary()

CV.tb <- as_tibble(svmCVError$performances)
best          <- as.numeric(svmCVError[2])
costBestIndex <- CV.tb[["error"]] == best
bestCost      <- CV.tb[["cost"]][costBestIndex]

CV.tb

## # A tibble: 100 x 4
##    gamma  cost  error dispersion
##    <dbl> <dbl>  <dbl>      <dbl>
##  1  1      0.5 0.0999    0.0125 
##  2  1.67   0.5 0.197     0.00949
##  3  2.33   0.5 0.243     0.0181 
##  4  3      0.5 0.259     0.0216 
##  5  3.67   0.5 0.267     0.0225 
##  6  4.33   0.5 0.272     0.0228 
##  7  5      0.5 0.276     0.0231 
##  8  5.67   0.5 0.279     0.0234 
##  9  6.33   0.5 0.283     0.0237 
## 10  7      0.5 0.285     0.0240 
## #  with 90 more rows
…
